{
  "scannerClass": "io.swagger.v3.jaxrs2.integration.JaxrsAnnotationScanner",
  "resourceClasses":
  [],
  "resourcePackages": ["org.meveo.apiv2"],
  "prettyPrint" : true,
  "cacheTTL": 0,
  "openAPI": {
    "servers": [{
      "url": "/opencell",
      "description": "Root path"
    }],
    "info": {
      "version": "1.0",
      "title": "Opencell OpenApi definition V2",
      "description": "This Swagger documentation contains Opencell API v2 endpoints",
      "termsOfService": "http://opencell.com/terms/",
      "contact": {
        "email": "opencell@opencellsoft.com"
      },
      "license": {
        "name": "Apache 2.0",
        "url": "http://www.apache.org/licenses/LICENSE-2.0.html"
      }
    }
  }
}